{
  "files": {
    "main.css": "/static/css/main.31066ed7.css",
    "main.js": "/static/js/main.51d4bb48.js",
    "static/js/787.fd754391.chunk.js": "/static/js/787.fd754391.chunk.js",
    "static/media/stall3.png": "/static/media/stall3.67854bbc1a73ed068775.png",
    "static/media/s1.png": "/static/media/s1.56d7208412f73814da8e.png",
    "static/media/ss.png": "/static/media/ss.a8a634032b26737585b0.png",
    "static/media/logo.png": "/static/media/logo.2d929cfcfdb5f220d11a.png",
    "index.html": "/index.html",
    "main.31066ed7.css.map": "/static/css/main.31066ed7.css.map",
    "main.51d4bb48.js.map": "/static/js/main.51d4bb48.js.map",
    "787.fd754391.chunk.js.map": "/static/js/787.fd754391.chunk.js.map"
  },
  "entrypoints": [
    "static/css/main.31066ed7.css",
    "static/js/main.51d4bb48.js"
  ]
}